{
  "project_info": {
    "project_number": "745109577101",
    "firebase_url": "https://aruka69-d4e8b.firebaseio.com",
    "project_id": "aruka69-d4e8b",
    "storage_bucket": "aruka69-d4e8b.appspot.com"
  },
  "client": [
    {
      "client_info": {
        "mobilesdk_app_id": "1:745109577101:android:573612975d7b1126",
        "android_client_info": {
          "package_name": "com.aruka69.mobile"
        }
      },
      "oauth_client": [
        {
          "client_id": "745109577101-36pgulhmteat9eqbi7q3ptalpgc6hf5c.apps.googleusercontent.com",
          "client_type": 3
        }
      ],
      "api_key": [
        {
          "current_key": "AIzaSyB3H8gIssMbVE5EIaeZXlBtQDLrWuVx_e8"
        }
      ],
      "services": {
        "analytics_service": {
          "status": 1
        },
        "appinvite_service": {
          "status": 1,
          "other_platform_oauth_client": []
        },
        "ads_service": {
          "status": 2
        }
      }
    }
  ],
  "configuration_version": "1"
}